{
	"player1": {
		"name": "Honza",
		"controls": {
			"_comment": "Key codes at https://photonstorm.github.io/phaser3-docs/Phaser.Input.Keyboard.KeyCodes.html",
			"left": "A",
			"right": "D",
			"jump": "W",
			"fire": "F"
		}
	},
	"player2": {
		"name": "Martin",
		"controls": {
			"_comment": "Key codes at https://photonstorm.github.io/phaser3-docs/Phaser.Input.Keyboard.KeyCodes.html",
			"left": "LEFT",
			"right": "RIGHT",
			"jump": "UP",
			"fire": "CTRL"
		}
	},
	"screenSize": {
		"width": 800,
		"height": 600
	},
	"worldWidth": 1000,
	"gravity": 300
}